Figure1
…
lowess_fit <- function(split){
lowess(analysis(split)$start,analysis(split)$logFC, f=3/100)
}
bootstrap_samples %>%
mutate(lowess_points = map(splits, lowess_fit)) %>%
select(id, lowess_points) %>%
mutate_if(is.list, map, as_tibble) %>%
unnest(cols = c(lowess_points))

# A tibble: 35,525 × 3
   id                x     y
   <chr>         <dbl> <dbl>
 1 Bootstrap01  944203 0.789
 2 Bootstrap01  960584 0.787
 3 Bootstrap01  998962 0.785
 4 Bootstrap01 1001138 0.785
 5 Bootstrap01 1081818 0.779
 6 Bootstrap01 1081818 0.779
 7 Bootstrap01 1216909 0.769
 8 Bootstrap01 1216909 0.769
 9 Bootstrap01 1216909 0.769
10 Bootstrap01 1232237 0.768
# … with 35,515 more rows
…
lowess_fit <- function(split){
lowess(analysis(split)$start,analysis(split)$logFC, f=3/100)
}
bootstrap_samples %>%
mutate(lowess_points = map(splits, lowess_fit)) %>%
select(id, lowess_points) %>%
mutate_if(is.list, map, as_tibble) %>%
unnest(cols = c(lowess_points))

# A tibble: 19,750 × 3
   id               x     y
   <chr>        <dbl> <dbl>
 1 Bootstrap01 236966 1.00 
 2 Bootstrap01 289126 0.994
 3 Bootstrap01 307631 0.990
 4 Bootstrap01 308408 0.990
 5 Bootstrap01 369499 0.978
 6 Bootstrap01 369499 0.978
 7 Bootstrap01 369499 0.978
 8 Bootstrap01 448268 0.962
 9 Bootstrap01 448268 0.962
10 Bootstrap01 494512 0.953
# … with 19,740 more rows
…
